Tidymodels
…
# Tidy prediction

.pull-left[
Consistent Predictions
]

.pull-right[

```r
predict(fit_lm, mtcars)
```

```
## # A tibble: 32 x 1
##    .pred
##    <dbl>
##  1  22.5
##  2  22.7
##  3  24.9
##  4  18.6
##  5  14.6
##  6  19.2
##  7  14.3
##  8  23.8
##  9  25.7
## 10  23.0
## # … with 22 more rows
```
…
---

# Performance metrics

```r
two_class_example %>%
  roc_curve(truth, Class1)
```

```
## # A tibble: 502 x 3
##    .threshold specificity sensitivity
##         <dbl>       <dbl>       <dbl>
##  1 -Inf           0                 1
##  2    1.79e-7     0                 1
##  3    4.50e-6     0.00413           1
##  4    5.81e-6     0.00826           1
##  5    5.92e-6     0.0124            1
##  6    1.22e-5     0.0165            1
##  7    1.40e-5     0.0207            1
##  8    1.43e-5     0.0248            1
##  9    2.38e-5     0.0289            1
## 10    3.30e-5     0.0331            1
## # … with 492 more rows
```
…
# rsample

Spending our data carefully and efficiently

---

# penguins

```r
library(palmerpenguins)
penguins
```

```
## # A tibble: 344 x 8
##    species island    bill_length_mm bill_depth_mm flipper_length_mm body_mass_g
##    <fct>   <fct>              <dbl>         <dbl>             <int>       <int>
##  1 Adelie  Torgersen           39.1          18.7               181        3750
##  2 Adelie  Torgersen           39.5          17.4               186        3800
##  3 Adelie  Torgersen           40.3          18                 195        3250
##  4 Adelie  Torgersen           NA            NA                  NA          NA
##  5 Adelie  Torgersen           36.7          19.3               193        3450
##  6 Adelie  Torgersen           39.3          20.6               190        3650
##  7 Adelie  Torgersen           38.9          17.8               181        3625
##  8 Adelie  Torgersen           39.2          19.6               195        4675
##  9 Adelie  Torgersen           34.1          18.1               193        3475
## 10 Adelie  Torgersen           42            20.2               190        4250
## # … with 334 more rows, and 2 more variables: sex <fct>, year <int>
```

---

# Validation split

```r
set.seed(1234)
penguins_split <- initial_split(penguins, prop = 0.7, strata = species)

penguins
```

```
## # A tibble: 344 x 8
##    species island    bill_length_mm bill_depth_mm flipper_length_mm body_mass_g
##    <fct>   <fct>              <dbl>         <dbl>             <int>       <int>
##  1 Adelie  Torgersen           39.1          18.7               181        3750
##  2 Adelie  Torgersen           39.5          17.4               186        3800
##  3 Adelie  Torgersen           40.3          18                 195        3250
##  4 Adelie  Torgersen           NA            NA                  NA          NA
##  5 Adelie  Torgersen           36.7          19.3               193        3450
##  6 Adelie  Torgersen           39.3          20.6               190        3650
##  7 Adelie  Torgersen           38.9          17.8               181        3625
##  8 Adelie  Torgersen           39.2          19.6               195        4675
##  9 Adelie  Torgersen           34.1          18.1               193        3475
## 10 Adelie  Torgersen           42            20.2               190        4250
## # … with 334 more rows, and 2 more variables: sex <fct>, year <int>
```
…
# Validation split

```r
set.seed(1234)
penguins_split <- initial_split(penguins, prop = 0.7, strata = species)

penguins_train <- training(penguins_split)
penguins_test <- testing(penguins_split)

penguins_train
```

```
## # A tibble: 239 x 8
##    species island    bill_length_mm bill_depth_mm flipper_length_mm body_mass_g
##    <fct>   <fct>              <dbl>         <dbl>             <int>       <int>
##  1 Adelie  Torgersen           39.5          17.4               186        3800
##  2 Adelie  Torgersen           40.3          18                 195        3250
##  3 Adelie  Torgersen           NA            NA                  NA          NA
##  4 Adelie  Torgersen           39.3          20.6               190        3650
##  5 Adelie  Torgersen           39.2          19.6               195        4675
##  6 Adelie  Torgersen           34.1          18.1               193        3475
##  7 Adelie  Torgersen           42            20.2               190        4250
##  8 Adelie  Torgersen           37.8          17.1               186        3300
##  9 Adelie  Torgersen           41.1          17.6               182        3200
## 10 Adelie  Torgersen           38.6          21.2               191        3800
## # … with 229 more rows, and 2 more variables: sex <fct>, year <int>
```

---

# Bootstrapping

```r
penguins_boots <- bootstraps(penguins_train, times = 1000)
penguins_boots
```

```
## # Bootstrap sampling 
## # A tibble: 1,000 x 2
##    splits           id           
##    <list>           <chr>        
##  1 <split [239/96]> Bootstrap0001
##  2 <split [239/90]> Bootstrap0002
##  3 <split [239/91]> Bootstrap0003
##  4 <split [239/84]> Bootstrap0004
##  5 <split [239/92]> Bootstrap0005
##  6 <split [239/92]> Bootstrap0006
##  7 <split [239/97]> Bootstrap0007
##  8 <split [239/85]> Bootstrap0008
##  9 <split [239/91]> Bootstrap0009
## 10 <split [239/83]> Bootstrap0010
## # … with 990 more rows
```
…
# recipes

## What happens to the data between `read_data()` and `fit_model()`?

---

## Prices of 54,000 round-cut diamonds

```r
library(ggplot2)
diamonds
```

```
## # A tibble: 53,940 x 10
##    carat cut       color clarity depth table price     x     y     z
##    <dbl> <ord>     <ord> <ord>   <dbl> <dbl> <int> <dbl> <dbl> <dbl>
##  1  0.23 Ideal     E     SI2      61.5    55   326  3.95  3.98  2.43
##  2  0.21 Premium   E     SI1      59.8    61   326  3.89  3.84  2.31
##  3  0.23 Good      E     VS1      56.9    65   327  4.05  4.07  2.31
##  4  0.29 Premium   I     VS2      62.4    58   334  4.2   4.23  2.63
##  5  0.31 Good      J     SI2      63.3    58   335  4.34  4.35  2.75
##  6  0.24 Very Good J     VVS2     62.8    57   336  3.94  3.96  2.48
##  7  0.24 Very Good I     VVS1     62.3    57   336  3.95  3.98  2.47
##  8  0.26 Very Good H     SI1      61.9    55   337  4.07  4.11  2.53
##  9  0.22 Fair      E     VS2      65.1    61   337  3.87  3.78  2.49
## 10  0.23 Very Good H     VS1      59.4    61   338  4     4.05  2.39
## # … with 53,930 more rows
```
…
---

# Hyperparameter Tuning

We also need to specify what values of the hyperparameters we are trying to tune we want to calculate. Since the lasso model can calculate all paths at once let us get back 50 evenly spaced values of `\(\lambda\)`

```r
lambda_grid <- grid_regular(penalty(), levels = 50)
lambda_grid
```

```
## # A tibble: 50 x 1
##     penalty
##       <dbl>
##  1 1   e-10
##  2 1.60e-10
##  3 2.56e-10
##  4 4.09e-10
##  5 6.55e-10
##  6 1.05e- 9
##  7 1.68e- 9
##  8 2.68e- 9
##  9 4.29e- 9
## 10 6.87e- 9
## # … with 40 more rows
```
…
---

# Hyperparameter Tuning

We can see how each of the values of `\(\lambda\)` is doing with `collect_metrics()`

```r
collect_metrics(tune_rs)
```

```
## # A tibble: 100 x 7
##     penalty .metric .estimator  mean     n std_err .config              
##       <dbl> <chr>   <chr>      <dbl> <int>   <dbl> <chr>                
##  1 1   e-10 rmse    standard   3.77      4   0.702 Preprocessor1_Model01
##  2 1   e-10 rsq     standard   0.606     4   0.191 Preprocessor1_Model01
##  3 1.60e-10 rmse    standard   3.77      4   0.702 Preprocessor1_Model02
##  4 1.60e-10 rsq     standard   0.606     4   0.191 Preprocessor1_Model02
##  5 2.56e-10 rmse    standard   3.77      4   0.702 Preprocessor1_Model03
##  6 2.56e-10 rsq     standard   0.606     4   0.191 Preprocessor1_Model03
##  7 4.09e-10 rmse    standard   3.77      4   0.702 Preprocessor1_Model04
##  8 4.09e-10 rsq     standard   0.606     4   0.191 Preprocessor1_Model04
##  9 6.55e-10 rmse    standard   3.77      4   0.702 Preprocessor1_Model05
## 10 6.55e-10 rsq     standard   0.606     4   0.191 Preprocessor1_Model05
## # … with 90 more rows
```
…
