palette2vec
…
---

```r
palette2vec(paletteer_palettes())
```

```
## # A tibble: 1,711 x 29
##    name  n_cols linear linear_split min_dist max_dist mean_dist min_saturation
##    <chr>  <int>  <dbl>        <dbl>    <dbl>    <dbl>     <dbl>          <dbl>
##  1 awto      8  0.963        0.975     9.52     67.4      40.5           16.8
##  2 awto      8  0.688        0.749    25.9      89.8      47.6            0  
##  3 awto     16  0.840        0.921    10.3      87.2      42.2            0  
##  4 awto      4  0.998        1        10.5      62.4      32.3            0  
##  5 awto      9  0.814        0.962    20.6      72.8      43.5            0  
##  6 awto      6  0.674        1        27.4      73.3      47.8           54.1
##  7 base     10  0.857        0.889    15.6      77.0      41.1           20.9
##  8 base     10  0.820        0.827    13.4      83.9      45.3           28.0
##  9 base     10  0.791        0.736    11.8      79.4      43.9           35.3
## 10 base     10  0.823        0.975    15.9      88.8      46.4           41.5
## #  with 1,701 more rows, and 21 more variables: max_saturation <dbl>,
## #   mean_saturation <dbl>, min_lightness <dbl>, max_lightness <dbl>,
## #   mean_lightness <dbl>, contains_min_red <dbl>, contains_min_orange <dbl>,
## #   contains_min_yellow <dbl>, contains_min_green <dbl>,
## #   contains_min_turqouise <dbl>, contains_min_blue <dbl>,
## #   contains_min_purple <dbl>, contains_min_pink <dbl>, contains_all_red <dbl>,
## #   contains_all_orange <dbl>, contains_all_yellow <dbl>,
## #   contains_all_green <dbl>, contains_all_turqouise <dbl>,
## #   contains_all_blue <dbl>, contains_all_purple <dbl>, contains_all_pink <dbl>
```
…
