Text Preprocessing in R
…
---

class: bg-corners, bg5

.pull-right.w90[

# Counts

```
## # A tibble: 610 x 5
##    tf_text_ability tf_text_able tf_text_according tf_text_across tf_text_active
##              <dbl>        <dbl>             <dbl>          <dbl>          <dbl>
##  1               0            7                 0              0              0
##  2               0            0                 0              0              2
##  3               0            4                 0              0              0
##  4               0            0                 0              0              4
##  5               0            2                 0              0              0
##  6               0            3                 0              2              1
##  7               0            1                 0              2              1
##  8               0            2                 0              1              0
##  9               0            3                 0              0              0
## 10               0            2                 0              1              0
## # … with 600 more rows
```
…
---

class: bg-corners, bg5

.pull-right.w90[

# Binary Counts

```
## # A tibble: 610 x 5
##    tf_text_ability tf_text_able tf_text_according tf_text_across tf_text_active
##    <lgl>           <lgl>        <lgl>             <lgl>          <lgl>         
##  1 FALSE           TRUE         FALSE             FALSE          FALSE         
##  2 FALSE           FALSE        FALSE             FALSE          TRUE          
##  3 FALSE           TRUE         FALSE             FALSE          FALSE         
##  4 FALSE           FALSE        FALSE             FALSE          TRUE          
##  5 FALSE           TRUE         FALSE             FALSE          FALSE         
##  6 FALSE           TRUE         FALSE             TRUE           TRUE          
##  7 FALSE           TRUE         FALSE             TRUE           TRUE          
##  8 FALSE           TRUE         FALSE             TRUE           FALSE         
##  9 FALSE           TRUE         FALSE             FALSE          FALSE         
## 10 FALSE           TRUE         FALSE             TRUE           FALSE         
## # … with 600 more rows
```
…
---

class: bg-corners, bg5

.pull-right.w90[

# TF-IDF

```
## # A tibble: 610 x 4
##    tfidf_text_ability tfidf_text_able tfidf_text_according tfidf_text_across
##                 <dbl>           <dbl>                <dbl>             <dbl>
##  1                  0         0.0159                     0           0      
##  2                  0         0                          0           0      
##  3                  0         0.0106                     0           0      
##  4                  0         0                          0           0      
##  5                  0         0.0112                     0           0      
##  6                  0         0.00559                    0           0.00441
##  7                  0         0.00249                    0           0.00589
##  8                  0         0.00500                    0           0.00295
##  9                  0         0.00697                    0           0      
## 10                  0         0.00433                    0           0.00256
## # … with 600 more rows
```
…
---

class: bg-corners, bg5

.pull-right.w90[

# Feature Hashing (1024)

```
## # A tibble: 610 x 5
##    text_hash0001 text_hash0002 text_hash0003 text_hash0004 text_hash0005
##            <dbl>         <dbl>         <dbl>         <dbl>         <dbl>
##  1            -1            -5             1            -1             0
##  2             0             0             0             0             0
##  3             0             0             0             0             0
##  4             0             0             0            -1             0
##  5            -1             0             0             0             0
##  6             0            -2             0             0             0
##  7             0            -1             1             0             0
##  8             0            -1             0             0             0
##  9             0             0             0             0             0
## 10             0            -2             0             0             0
## # … with 600 more rows
```
]

---

class: bg-corners, bg5

.pull-right.w90[

# Feature Hashing (64)

```
## # A tibble: 610 x 5
##    text_hash01 text_hash02 text_hash03 text_hash04 text_hash05
##          <dbl>       <dbl>       <dbl>       <dbl>       <dbl>
##  1           0          -5           5           0           7
##  2           0          -2          27          -1           2
##  3           0          -1           0           0           2
##  4         -23          -1           6          -1           4
##  5          -4           0           2           0           4
##  6           2          -6           5           0           4
##  7          -1          -3           3           1           2
##  8           2          -1           3          -3           0
##  9           0          -2           1           1           2
## 10          -1           2           7          -2           1
## # … with 600 more rows
```
]

---

class: bg-corners, bg5

.pull-right.w90[

# Feature Hashing (16)

```
## # A tibble: 610 x 5
##    text_hash01 text_hash02 text_hash03 text_hash04 text_hash05
##          <dbl>       <dbl>       <dbl>       <dbl>       <dbl>
##  1          -4          -9           7          20          39
##  2          -4         -16          24           3          -2
##  3          -5          -8           5         -39          35
##  4         -27          -5           5          17           2
##  5           1          -5           4           4           2
##  6          -4         -16           5          24         -19
##  7         -15          -7           2          16           8
##  8          -4           1           2           7           3
##  9         -10         -15           3          66         -12
## 10         -22          -9          11          13           2
## # … with 600 more rows
```
…
