Working with tidymodels
…
---

# Tidy prediction

```r
predict(fit_glm, mtcars)
```

```
## # A tibble: 32 x 1
##    .pred_class
##    <fct>      
##  1 1          
##  2 1          
##  3 1          
##  4 0          
##  5 0          
##  6 0          
##  7 0          
##  8 0          
##  9 0          
## 10 0          
## # … with 22 more rows
```
…
car_preped <- prep(car_rec, training = mtcars)
```

--

```r
bake(car_preped, new_data = mtcars)
```

--

```
## # A tibble: 32 x 11
##       cyl    disp     hp   drat       wt   qsec     vs     am   gear   carb
##     <dbl>   <dbl>  <dbl>  <dbl>    <dbl>  <dbl>  <dbl>  <dbl>  <dbl>  <dbl>
##  1 -0.105 -0.571  -0.535  0.568 -0.610   -0.777 -0.868  1.19   0.424  0.735
##  2 -0.105 -0.571  -0.535  0.568 -0.350   -0.464 -0.868  1.19   0.424  0.735
##  3 -1.22  -0.990  -0.783  0.474 -0.917    0.426  1.12   1.19   0.424 -1.12 
##  4 -0.105  0.220  -0.535 -0.966 -0.00230  0.890  1.12  -0.814 -0.932 -1.12 
##  5  1.01   1.04    0.413 -0.835  0.228   -0.464 -0.868 -0.814 -0.932 -0.503
##  6 -0.105 -0.0462 -0.608 -1.56   0.248    1.33   1.12  -0.814 -0.932 -1.12 
##  7  1.01   1.04    1.43  -0.723  0.361   -1.12  -0.868 -0.814 -0.932  0.735
##  8 -1.22  -0.678  -1.24   0.175 -0.0278   1.20   1.12  -0.814  0.424 -0.503
##  9 -1.22  -0.726  -0.754  0.605 -0.0687   2.83   1.12  -0.814  0.424 -0.503
## 10 -0.105 -0.509  -0.345  0.605  0.228    0.253  1.12  -0.814  0.424  0.735
## # … with 22 more rows, and 1 more variable: mpg <dbl>
```
…
```r
library(recipes)
car_rec <- recipe(mpg ~ ., mtcars) %>%
  step_center(all_predictors()) %>%
  step_scale(all_predictors())

car_preped <- prep(car_rec, training = mtcars)
```

```r
juice(car_preped)
```

```
## # A tibble: 32 x 11
##       cyl    disp     hp   drat       wt   qsec     vs     am   gear   carb
##     <dbl>   <dbl>  <dbl>  <dbl>    <dbl>  <dbl>  <dbl>  <dbl>  <dbl>  <dbl>
##  1 -0.105 -0.571  -0.535  0.568 -0.610   -0.777 -0.868  1.19   0.424  0.735
##  2 -0.105 -0.571  -0.535  0.568 -0.350   -0.464 -0.868  1.19   0.424  0.735
##  3 -1.22  -0.990  -0.783  0.474 -0.917    0.426  1.12   1.19   0.424 -1.12 
##  4 -0.105  0.220  -0.535 -0.966 -0.00230  0.890  1.12  -0.814 -0.932 -1.12 
##  5  1.01   1.04    0.413 -0.835  0.228   -0.464 -0.868 -0.814 -0.932 -0.503
##  6 -0.105 -0.0462 -0.608 -1.56   0.248    1.33   1.12  -0.814 -0.932 -1.12 
##  7  1.01   1.04    1.43  -0.723  0.361   -1.12  -0.868 -0.814 -0.932  0.735
##  8 -1.22  -0.678  -1.24   0.175 -0.0278   1.20   1.12  -0.814  0.424 -0.503
##  9 -1.22  -0.726  -0.754  0.605 -0.0687   2.83   1.12  -0.814  0.424 -0.503
## 10 -0.105 -0.509  -0.345  0.605  0.228    0.253  1.12  -0.814  0.424  0.735
## # … with 22 more rows, and 1 more variable: mpg <dbl>
```
…
